<svg xmlns="http://www.w3.org/2000/svg" width="237" height="132.091" viewBox="0 0 237 132.091">
  <g id="no_upcoming_rides" transform="translate(2723 -375.909)">
    <g id="road-perspective_1_" data-name="road-perspective (1)" transform="translate(-2665 375.909)" opacity="0.44">
      <path id="Path_163" data-name="Path 163" d="M117.571,148.589,90.242,80.17a5.366,5.366,0,0,0-1.7-2.162,4,4,0,0,0-2.491-.918H63.831a2.125,2.125,0,0,1,1.507.622,2.22,2.22,0,0,1,.721,1.474l.983,12.584a1.843,1.843,0,0,1-.522,1.507,1.965,1.965,0,0,1-1.443.589H54.2a1.96,1.96,0,0,1-1.441-.589,1.837,1.837,0,0,1-.524-1.507l.983-12.584a2.21,2.21,0,0,1,.721-1.474,2.127,2.127,0,0,1,1.507-.622H33.227a3.992,3.992,0,0,0-2.491.918,5.364,5.364,0,0,0-1.7,2.162L1.7,148.589a19.733,19.733,0,0,0-1.7,7.6q0,4.784,3.015,4.784H49.152a1.911,1.911,0,0,1-1.442-.622,1.85,1.85,0,0,1-.524-1.475L48.5,142.1a2.215,2.215,0,0,1,.721-1.475,2.121,2.121,0,0,1,1.507-.621H68.55a2.124,2.124,0,0,1,1.508.621,2.214,2.214,0,0,1,.721,1.475l1.312,16.775a1.853,1.853,0,0,1-.524,1.475,1.91,1.91,0,0,1-1.442.622h46.137q3.014,0,3.015-4.784A19.731,19.731,0,0,0,117.571,148.589Zm-48.036-23a1.5,1.5,0,0,1-.525,1.31,2,2,0,0,1-1.376.525H51.643a2,2,0,0,1-1.376-.525,1.5,1.5,0,0,1-.525-1.31v-.262l1.573-20.97a2.214,2.214,0,0,1,.721-1.475,2.124,2.124,0,0,1,1.507-.623H65.732a2.121,2.121,0,0,1,1.508.623,2.218,2.218,0,0,1,.721,1.475l1.573,20.97v.262Z" transform="translate(0 -77.09)"/>
    </g>
    <text id="No_upcoming_rides-2" data-name="No upcoming rides" transform="translate(-2723 502)" fill="#0c0202" font-size="24" font-family="Roboto-Bold, Roboto" font-weight="700" opacity="0.44"><tspan x="0" y="0">NO UPCOMING RIDES</tspan></text>
  </g>
</svg>
