<svg xmlns="http://www.w3.org/2000/svg" width="19.769" height="21.8" viewBox="0 0 19.769 21.8">
  <g id="delete_icon" transform="translate(-3416 -1420)">
    <path id="Path_1466" data-name="Path 1466" d="M57.065,46.447h1.174V59.032H57.065Z" transform="translate(3368.077 1381.508)" fill="#707070"/>
    <path id="Path_1479" data-name="Path 1479" d="M57.065,46.447h1.174V57.23H57.065Z" transform="translate(3363.858 1384.013)" fill="#707070"/>
    <path id="Path_1480" data-name="Path 1480" d="M57.065,46.447h1.174V57.23H57.065Z" transform="translate(3372.296 1384.013)" fill="#707070"/>
    <path id="Path_1471" data-name="Path 1471" d="M19.629,3.816h-4.82V2.767A2.77,2.77,0,0,0,12.042,0H8.726A2.77,2.77,0,0,0,5.959,2.767V3.816H1.138a.639.639,0,1,0,0,1.277H2.75V19.878A1.924,1.924,0,0,0,4.672,21.8H16.1a1.924,1.924,0,0,0,1.922-1.922V5.093h1.612a.639.639,0,1,0,0-1.277ZM7.236,2.767a1.491,1.491,0,0,1,1.49-1.489h3.317a1.491,1.491,0,0,1,1.489,1.489V3.816h-6.3Zm9.5,17.112a.645.645,0,0,1-.644.644H4.672a.645.645,0,0,1-.644-.644V5.093H16.74Zm0,0" transform="translate(3415.5 1420)" fill="#707070"/>
  </g>
</svg>
