<svg xmlns="http://www.w3.org/2000/svg" width="22.713" height="22.713" viewBox="0 0 22.713 22.713">
  <g id="edit_images" transform="translate(-9139.138 -12547.436)">
    <circle id="Ellipse_10" data-name="Ellipse 10" cx="11.357" cy="11.357" r="11.357" transform="translate(9139.138 12547.436)" fill="#B2020F"/>
    <text id="_" data-name="+" transform="translate(9145.547 12564.336)" fill="#fff" font-size="15.246" font-family="NeoSansStd-Bold, Neo Sans Std" font-weight="700"><tspan x="0" y="0">+</tspan></text>
  </g>
</svg>
