<svg xmlns="http://www.w3.org/2000/svg" width="1" height="12.516" viewBox="0 0 1 12.516">
  <line id="rentals_line" y2="12.516" transform="translate(0.5)" fill="none" stroke="#000" stroke-miterlimit="10" stroke-width="1"/>
</svg>
