<svg xmlns="http://www.w3.org/2000/svg" width="24" height="24" viewBox="0 0 24 24">
  <g id="Favourite_sel" transform="translate(620 -49)">
    <rect id="Rectangle_1" data-name="Rectangle 1" width="24" height="24" transform="translate(-620 49)" fill="#fff" opacity="0"/>
    <g id="favorite-heart-button_3_" data-name="favorite-heart-button (3)" transform="translate(-619 30.6)">
      <g id="favorite" transform="translate(0 20.4)">
        <path id="Path_14" data-name="Path 14" d="M10.978,40.6,9.441,39.063C3.733,34.013,0,30.61,0,26.438A5.952,5.952,0,0,1,6.038,20.4a6.6,6.6,0,0,1,4.94,2.305,6.6,6.6,0,0,1,4.94-2.305,5.952,5.952,0,0,1,6.038,6.038c0,4.172-3.733,7.575-9.441,12.625Z" transform="translate(0 -20.4)" fill="#b2020f"/>
      </g>
    </g>
  </g>
</svg>
