<svg xmlns="http://www.w3.org/2000/svg" width="23.084" height="17.314" viewBox="0 0 23.084 17.314">
  <g id="apply_code" transform="translate(-3862.895 -1158.876)">
    <path id="Path_515" data-name="Path 515" d="M3883.815,1176.19h-18.756a2.166,2.166,0,0,1-2.164-2.164v-3.607a.721.721,0,0,1,.721-.722,2.164,2.164,0,1,0,0-4.328.721.721,0,0,1-.721-.722v-3.607a2.166,2.166,0,0,1,2.164-2.164h18.756a2.166,2.166,0,0,1,2.164,2.164v3.607a.721.721,0,0,1-.721.722,2.164,2.164,0,1,0,0,4.328.721.721,0,0,1,.721.722v3.607a2.166,2.166,0,0,1-2.164,2.164Zm-19.478-5.123v2.959a.722.722,0,0,0,.722.721h18.756a.722.722,0,0,0,.722-.721v-2.959a3.607,3.607,0,0,1,0-7.069v-2.958a.722.722,0,0,0-.722-.721h-18.756a.722.722,0,0,0-.722.721V1164a3.607,3.607,0,0,1,0,7.068Z" fill="#b2020f"/>
    <path id="Path_516" data-name="Path 516" d="M3871.6,1173.041l4.327-11.538,1.351.506-4.327,11.539Z" fill="#b2020f"/>
    <path id="path-1" d="M3871.024,1167.776a2.164,2.164,0,1,1,2.164-2.164,2.167,2.167,0,0,1-2.164,2.164Zm0-2.886a.721.721,0,1,0,.722.722A.722.722,0,0,0,3871.024,1164.89Z" fill="#b2020f"/>
    <path id="path-1-2" data-name="path-1" d="M3878.481,1172.25a2.164,2.164,0,1,1,2.164-2.164A2.167,2.167,0,0,1,3878.481,1172.25Zm0-2.886a.721.721,0,1,0,.722.722A.722.722,0,0,0,3878.481,1169.364Z" fill="#b2020f"/>
  </g>
</svg>
