<svg xmlns="http://www.w3.org/2000/svg" width="26.354" height="26.353" viewBox="0 0 26.354 26.353">
  <g id="keep_the_vehicle_clean" transform="translate(-4723.185 -519.942)">
    <path id="Path_740" data-name="Path 740" d="M4748.263,528.017h1.275v-.851h-.991l-2-4.857a3.811,3.811,0,0,0-3.537-2.368h-6.924a3.814,3.814,0,0,0-3.212,1.747l-3.583,5.539-5.8,1.658a.425.425,0,0,0-.308.408v5.526a.427.427,0,0,0,.426.425h2.15a3.823,3.823,0,0,0,7.6,0h1.357l.229.345a5.893,5.893,0,0,1,0,6.536l-.311.466a2.382,2.382,0,0,0,3.3,3.3l.289-.192a6.625,6.625,0,0,1,1.532-.752v1.344h.85v-1.7a.426.426,0,0,0-.189-.354l-2.361-1.574v-1.472a.425.425,0,0,1,.85,0v1.275h.85v-5.526a.425.425,0,1,1,.85,0v2.975h.85v-3.825a.425.425,0,0,1,.85,0v3.825h.851v-2.975a.425.425,0,0,1,.85,0v2.975h.85v-1.275a.425.425,0,0,1,.85,0v4.5l-.725.726a.425.425,0,0,0-.125.3v2.125h.85v-.481l.121.081a2.383,2.383,0,0,0,3.3-3.3l-.31-.466a5.89,5.89,0,0,1,0-6.536l.31-.466a2.383,2.383,0,0,0-3.3-3.3l-.289.193a6.593,6.593,0,0,1-7.315,0l-.289-.193a2.383,2.383,0,0,0-3.7,1.983,2.408,2.408,0,0,0,.08.592h-.955a3.823,3.823,0,0,0-7.6,0h-1.725v-2.55h1.275a.425.425,0,0,0,.425-.425v-2.29l3.942-1.127a.427.427,0,0,0,.24-.178l3.67-5.673a2.964,2.964,0,0,1,2.5-1.359h6.924a2.965,2.965,0,0,1,2.751,1.842l2.109,5.12a.425.425,0,0,0,.393.263Zm-11.644,4.251a1.529,1.529,0,0,1,.85.257l.29.193a7.442,7.442,0,0,0,8.258,0l.289-.192a1.532,1.532,0,0,1,2.125,2.124l-.31.466a6.743,6.743,0,0,0,0,7.48l.311.466a1.532,1.532,0,0,1-2.125,2.125l-.289-.192c-.1-.066-.2-.125-.3-.185v-.464l.726-.726a.428.428,0,0,0,.124-.3v-4.675a1.277,1.277,0,0,0-1.276-1.275,1.26,1.26,0,0,0-.425.078v-.5a29.735,29.735,0,0,1-2.975-2.125,1.266,1.266,0,0,1-1.7.85,1.276,1.276,0,0,0-1.275,1.275V540a1.248,1.248,0,0,0-.425-.079,1.278,1.278,0,0,0-1.275,1.276v1.7a.424.424,0,0,0,.19.353l1.616,1.078a7.428,7.428,0,0,0-1.259.669l-.289.192a1.532,1.532,0,0,1-2.126-2.124l.311-.466a6.74,6.74,0,0,0,0-7.48l-.31-.465a1.533,1.533,0,0,1,1.274-2.383Zm-7.057-.424a2.975,2.975,0,1,1-2.975,2.975A2.978,2.978,0,0,1,4729.562,531.844Zm-4.676-.85h-.85v-1.379l.85-.243Z"/>
    <path id="Path_741" data-name="Path 741" d="M4729.562,536.944a2.125,2.125,0,1,0-2.125-2.125A2.127,2.127,0,0,0,4729.562,536.944Zm0-3.4a1.275,1.275,0,1,1-1.275,1.275A1.276,1.276,0,0,1,4729.562,533.544Z"/>
    <path id="Path_742" data-name="Path 742" d="M4746.488,527.832a.423.423,0,0,0,.046-.393L4744.828,523a2.139,2.139,0,0,0-1.984-1.362h-6.383a2.114,2.114,0,0,0-1.81,1.012l-2.9,4.716a.425.425,0,0,0,.363.648h14.026A.424.424,0,0,0,4746.488,527.832Zm-11.113-4.733a1.267,1.267,0,0,1,1.086-.607h2.451v4.675h-6.04Zm4.387,4.068v-4.675h3.082a1.282,1.282,0,0,1,1.19.817l1.485,3.858Z"/>
    <path id="Path_743" data-name="Path 743" d="M4738.062,528.868h1.7v.85h-1.7Z"/>
    <path id="Path_744" data-name="Path 744" d="M4744.863,528.867h1.7v.85h-1.7Z"/>
    <path id="Path_745" data-name="Path 745" d="M4732.963,543.319a1.7,1.7,0,0,1-1.7-1.7.425.425,0,1,0-.85,0,1.7,1.7,0,0,1-1.7,1.7.425.425,0,0,0,0,.85,1.7,1.7,0,0,1,1.7,1.7.425.425,0,0,0,.85,0,1.7,1.7,0,0,1,1.7-1.7.425.425,0,1,0,0-.85Zm-2.125,1.143a.717.717,0,0,1,0-1.435.717.717,0,0,1,0,1.435Z"/>
    <path id="Path_746" data-name="Path 746" d="M4727.862,540.345a1.7,1.7,0,0,1-1.7-1.7.425.425,0,1,0-.85,0,1.7,1.7,0,0,1-1.7,1.7.425.425,0,0,0,0,.85,1.7,1.7,0,0,1,1.7,1.7.425.425,0,0,0,.85,0,1.7,1.7,0,0,1,1.7-1.7.425.425,0,1,0,0-.85Zm-2.125,1.142a.717.717,0,0,1,0-1.434.717.717,0,1,1,0,1.434Z"/>
    <path id="Path_747" data-name="Path 747" d="M4723.61,522.919a1.7,1.7,0,0,1,1.7,1.7.425.425,0,0,0,.85,0,1.7,1.7,0,0,1,1.7-1.7.425.425,0,1,0,0-.85,1.7,1.7,0,0,1-1.7-1.7.425.425,0,0,0-.85,0,1.7,1.7,0,0,1-1.7,1.7.425.425,0,0,0,0,.85Zm2.125-1.143a.717.717,0,1,1,0,1.434,2.6,2.6,0,0,0-.718-.717A2.553,2.553,0,0,0,4725.735,521.776Z"/>
  </g>
</svg>
