<svg xmlns="http://www.w3.org/2000/svg" viewBox="0 0 29 26" width="29" height="26">
	<style>
		tspan { white-space:pre }
		.shp0 { opacity: 0.6;fill: #000000 } 
	</style>
	<g id="Group 28">
		<g id="Group 25">
			<path id="Forma 1" class="shp0" d="M5.56 1C2.49 1 0 3.54 0 6.68C0 9.82 2.49 12.36 5.56 12.36C11.13 12.36 7.42 23.35 0 23.35L0 26C13.24 26 18.43 1 5.56 1ZM21.59 1C18.52 1 16.03 3.54 16.03 6.68C16.03 9.82 18.52 12.36 21.59 12.36C27.15 12.36 23.44 23.35 16.03 23.35L16.03 26C29.26 26 34.45 1 21.59 1Z" />
		</g>
	</g>
</svg>