<svg xmlns="http://www.w3.org/2000/svg" viewBox="0 0 33 33" width="33" height="33">
	<style>
		tspan { white-space:pre }
		.shp0 { fill: #fd0000 } 
	</style>
	<path id="Forma 1" class="shp0" d="M31.26 14.77L19.23 14.77L19.23 2.74C19.23 2.19 18.49 1 17 1C15.51 1 14.77 2.19 14.77 2.74L14.77 14.77L2.74 14.77C2.19 14.77 1 15.51 1 17C1 18.49 2.19 19.23 2.74 19.23L14.77 19.23L14.77 31.26C14.77 31.81 15.51 33 17 33C18.49 33 19.23 31.81 19.23 31.26L19.23 19.23L31.26 19.23C31.81 19.23 33 18.49 33 17C33 15.51 31.81 14.77 31.26 14.77Z" />
</svg>