<svg xmlns="http://www.w3.org/2000/svg" width="294" height="386" viewBox="0 0 294 386">
  <g id="Group_1180" data-name="Group 1180" transform="translate(-9847 -10150)">
    <g id="Rectangle_1146" data-name="Rectangle 1146" transform="translate(9879 10150)" fill="none" stroke="#707070" stroke-width="6">
      <path d="M6,0h98a6,6,0,0,1,6,6V51a0,0,0,0,1,0,0H0a0,0,0,0,1,0,0V6A6,6,0,0,1,6,0Z" stroke="none"/>
      <rect x="3" y="3" width="104" height="45" rx="3" fill="none"/>
    </g>
    <g id="Group_87" data-name="Group 87">
      <g id="Rectangle_1136" data-name="Rectangle 1136" transform="translate(9847 10196)" fill="none" stroke="#707070" stroke-width="6">
        <rect width="294" height="340" rx="36" stroke="none"/>
        <rect x="3" y="3" width="288" height="334" rx="33" fill="none"/>
      </g>
    </g>
    <g id="Rectangle_1147" data-name="Rectangle 1147" transform="translate(9913 10156)" fill="#707070" stroke="#707070" stroke-width="6">
      <rect width="8" height="39" stroke="none"/>
      <rect x="3" y="3" width="2" height="33" fill="none"/>
    </g>
    <g id="Rectangle_1148" data-name="Rectangle 1148" transform="translate(9947 10156)" fill="#707070" stroke="#707070" stroke-width="6">
      <rect width="8" height="39" stroke="none"/>
      <rect x="3" y="3" width="2" height="33" fill="none"/>
    </g>
  </g>
</svg>
