<svg xmlns="http://www.w3.org/2000/svg" viewBox="0 0 29 26" width="29" height="26">
	<style>
		tspan { white-space:pre }
		.shp0 { opacity: 0.6;fill: #000000 } 
	</style>
	<g id="Group 28">
		<g id="Group 25">
			<path id="Forma 1" class="shp0" d="M23.44 1C26.51 1 29 3.54 29 6.68C29 9.82 26.51 12.36 23.44 12.36C17.87 12.36 21.58 23.35 29 23.35L29 26C15.76 26 10.57 1 23.44 1ZM7.41 1C10.48 1 12.97 3.54 12.97 6.68C12.97 9.82 10.48 12.36 7.41 12.36C1.85 12.36 5.56 23.35 12.97 23.35L12.97 26C-0.26 26 -5.45 1 7.41 1Z" />
		</g>
	</g>
</svg>