<svg xmlns="http://www.w3.org/2000/svg" width="21.616" height="25" viewBox="0 0 21.616 25">
  <g id="how_it_works" transform="translate(-446.012 -12543.695)">
    <path id="Path_195" data-name="Path 195" d="M456.169,12544.156h2.515v1.677l1.4.559,1.4-.559,1.4,1.118-.838,1.4.559,1.677,1.4.279v1.677h-1.4l-.559,1.957.559,1.117h.559l-1.118,1.4-1.956-.559-1.4.559v1.4h-2.515v-1.4l-1.677-.559-1.118,1.118-1.677-1.677.839-1.118-.28-1.4h-.279l-1.4-.56.28-1.956.838-.279.978-1.537-1.118-1.4,1.677-1.678,1.4,1.118,1.118-.838Z"/>
    <g id="Group_437" data-name="Group 437">
      <g id="Group_436" data-name="Group 436">
        <path id="Path_196" data-name="Path 196" d="M461.54,12559.756h-10.3a.414.414,0,0,0-.292.12l-4.941,4.942.582.582,4.821-4.821h9.672c-.086.489-.355,1.236-1.2,1.236h-4.529v.822h4.529c1.629,0,2.059-1.615,2.059-2.47A.412.412,0,0,0,461.54,12559.756Z"/>
      </g>
    </g>
    <g id="Group_439" data-name="Group 439">
      <g id="Group_438" data-name="Group 438">
        <path id="Path_197" data-name="Path 197" d="M466.772,12556.994a.411.411,0,0,0-.582,0l-3.706,3.706.582.582,3.383-3.382a1.755,1.755,0,0,1-.259,2.388l-4.821,4.821h-8.477a.412.412,0,0,0-.291.121l-2.883,2.883.582.582,2.762-2.763h8.478a.412.412,0,0,0,.291-.121l4.941-4.94A2.642,2.642,0,0,0,466.772,12556.994Z"/>
      </g>
    </g>
    <g id="Group_441" data-name="Group 441">
      <g id="Group_440" data-name="Group 440">
        <path id="Path_198" data-name="Path 198" d="M464.422,12549.461h-1.48a5.706,5.706,0,0,0-.452-1.091l1.047-1.047a.412.412,0,0,0,0-.583l-1.748-1.747a.411.411,0,0,0-.582,0l-1.047,1.047a5.736,5.736,0,0,0-1.091-.453v-1.479a.412.412,0,0,0-.412-.412h-2.471a.412.412,0,0,0-.412.412v1.479a5.727,5.727,0,0,0-1.09.453l-1.048-1.047a.411.411,0,0,0-.582,0l-1.748,1.747a.414.414,0,0,0,0,.583l1.048,1.047a5.712,5.712,0,0,0-.453,1.091h-1.48a.412.412,0,0,0-.412.412v2.47a.412.412,0,0,0,.412.412h1.48a5.738,5.738,0,0,0,.453,1.091l-1.048,1.047a.414.414,0,0,0,0,.583l1.748,1.747a.422.422,0,0,0,.582,0l1.048-1.047a5.727,5.727,0,0,0,1.09.453v1.48a.411.411,0,0,0,.412.41h2.471a.411.411,0,0,0,.412-.41v-1.48a5.736,5.736,0,0,0,1.091-.453l1.047,1.047a.41.41,0,0,0,.582,0l1.748-1.747a.414.414,0,0,0,0-.583l-1.048-1.047a5.738,5.738,0,0,0,.453-1.091h1.48a.411.411,0,0,0,.412-.412v-2.47A.411.411,0,0,0,464.422,12549.461Zm-.411,2.471h-1.385a.412.412,0,0,0-.4.317,4.941,4.941,0,0,1-.6,1.448.411.411,0,0,0,.059.508l.98.979-1.166,1.166-.979-.979a.414.414,0,0,0-.508-.061,4.908,4.908,0,0,1-1.449.6.413.413,0,0,0-.317.4v1.384H456.6v-1.384a.412.412,0,0,0-.317-.4,4.891,4.891,0,0,1-1.449-.6.413.413,0,0,0-.508.06l-.979.979-1.165-1.165.979-.979a.411.411,0,0,0,.06-.508,4.9,4.9,0,0,1-.6-1.449.412.412,0,0,0-.4-.317h-1.384v-1.646h1.384a.412.412,0,0,0,.4-.317,4.9,4.9,0,0,1,.6-1.449.412.412,0,0,0-.06-.508l-.979-.979,1.165-1.164.979.979a.411.411,0,0,0,.508.06,4.943,4.943,0,0,1,1.449-.6.411.411,0,0,0,.317-.4v-1.386h1.647v1.386a.411.411,0,0,0,.318.4,4.926,4.926,0,0,1,1.448.6.411.411,0,0,0,.508-.06l.979-.979,1.166,1.164-.98.979a.411.411,0,0,0-.059.508,4.941,4.941,0,0,1,.6,1.448.411.411,0,0,0,.4.317h1.385v1.647Z"/>
      </g>
    </g>
    <g id="Group_443" data-name="Group 443">
      <g id="Group_442" data-name="Group 442">
        <path id="Path_199" data-name="Path 199" d="M457.422,12548.637a2.471,2.471,0,1,0,2.47,2.472A2.471,2.471,0,0,0,457.422,12548.637Zm0,4.118a1.647,1.647,0,1,1,1.647-1.646A1.647,1.647,0,0,1,457.422,12552.755Z" fill="#fff"/>
      </g>
    </g>
  </g>
</svg>
