<svg xmlns="http://www.w3.org/2000/svg" width="26.649" height="18.031" viewBox="0 0 26.649 18.031">
  <g id="insurance" transform="translate(-444.436 -12632.29)">
    <path id="Path_189" data-name="Path 189" d="M448.187,12642.433c.34,0,.682.021,1.022,0,.467-.034.832-.328.8-.765a1.268,1.268,0,0,0-.572-.877,5.865,5.865,0,0,0-1.782-.65,1.576,1.576,0,0,0-1.213.263,1.618,1.618,0,0,0-.316,1.207,1.014,1.014,0,0,0,1.038.823c.338.028.681,0,1.022,0m13.89-8.1c-.528.342-.893.418-1.252-.2a1.973,1.973,0,0,0-1.818-.9q-3.87-.006-7.74.007a2.133,2.133,0,0,0-1.889,1.047c-.6.945-1.191,1.891-1.767,2.848-.4.664-.264.9.509.9,2.283.007,4.566,0,6.85,0h.766c.294,1.923.577,3.78.876,5.739h-2.5c-.412,0-.823.01-1.233,0-.448-.017-.682.154-.685.633s.159.717.679.708c1.118-.021,2.237,0,3.356,0s1.126,0,1.6,1.184h-9.767c0,.441-.015.817,0,1.191.025.46-.175.688-.633.688a18.419,18.419,0,0,1-2.052-.028c-.22-.025-.581-.375-.578-.572.029-2.462.059-4.926.216-7.381a8.937,8.937,0,0,1,.78-2.23c-.217-.077-.5-.189-.8-.277-.419-.125-.666-.437-.518-.816a1.337,1.337,0,0,1,.723-.741,11.724,11.724,0,0,1,1.426-.078,1.253,1.253,0,0,0,.754-.415,20.948,20.948,0,0,0,1.141-1.785,3.061,3.061,0,0,1,2.781-1.559c2.534-.011,5.069,0,7.6-.007a3.244,3.244,0,0,1,3.17,2.046"/>
    <path id="Path_190" data-name="Path 190" d="M457.837,12637.689c.106,1.032.171,2.236.363,3.42a10.146,10.146,0,0,0,5.274,7.792.982.982,0,0,0,.788.045,9.676,9.676,0,0,0,3.4-2.906c1.764-2.468,2.18-5.315,2.254-8.246,0-.129-.288-.336-.475-.389-1.707-.48-3.421-.939-5.136-1.389a1.426,1.426,0,0,0-.711-.038c-1.854.535-3.7,1.1-5.758,1.711m-1.192-1.049c2.009-.5,3.885-.826,5.649-1.461a3.765,3.765,0,0,1,3.215.019,12.362,12.362,0,0,0,2.75.8c.908.2,1.837.312,2.826.474.005,3.986-.357,7.853-3.119,11.052a11.288,11.288,0,0,1-3.716,2.741,1.051,1.051,0,0,1-.806-.056,11.2,11.2,0,0,1-6.357-8.838c-.252-1.612-.31-3.254-.442-4.729"/>
    <path id="Path_191" data-name="Path 191" d="M463.964,12636.917l5.125,1.405q-.221,1.748-.457,3.628h-4.668Z"/>
    <path id="Path_192" data-name="Path 192" d="M459.3,12642.078h4.535v6.034a8.891,8.891,0,0,1-4.535-6.034"/>
  </g>
</svg>
