<svg xmlns="http://www.w3.org/2000/svg" width="24" height="24" viewBox="0 0 24 24">
  <g id="favourite" transform="translate(-17629 -2775)">
    <rect id="Rectangle_44" data-name="Rectangle 44" width="24" height="24" transform="translate(17629 2775)" fill="#fff" opacity="0"/>
    <g id="favorite-heart-button_2_" data-name="favorite-heart-button (2)" transform="translate(17630 2756.6)">
      <g id="favorite" transform="translate(0 20.4)">
        <path id="Path_19" data-name="Path 19" d="M10.978,40.6,9.441,39.063C3.733,34.013,0,30.61,0,26.438A5.953,5.953,0,0,1,6.038,20.4a6.6,6.6,0,0,1,4.94,2.305,6.6,6.6,0,0,1,4.94-2.305,5.953,5.953,0,0,1,6.038,6.038c0,4.172-3.733,7.575-9.441,12.625Z" transform="translate(0 -20.4)" fill="#c40001"/>
      </g>
    </g>
  </g>
</svg>
