<svg xmlns="http://www.w3.org/2000/svg" width="24" height="24" viewBox="0 0 24 24">
  <g id="legal" transform="translate(-17569 -2775)">
    <rect id="Rectangle_42" data-name="Rectangle 42" width="24" height="24" transform="translate(17569 2775)" fill="#fff" opacity="0"/>
    <g id="auction" transform="translate(17570 2775.969)">
      <g id="Group_86" data-name="Group 86" transform="translate(0 17.751)">
        <g id="Group_85" data-name="Group 85">
          <path id="Path_22" data-name="Path 22" d="M12.924,387.484H1.688A1.689,1.689,0,0,0,0,389.172v3.07H14.612v-3.07A1.689,1.689,0,0,0,12.924,387.484Z" transform="translate(0 -387.484)" fill="#c40001"/>
        </g>
      </g>
      <g id="Group_88" data-name="Group 88" transform="translate(2.755 0.03)">
        <g id="Group_87" data-name="Group 87">
          <path id="Path_23" data-name="Path 23" d="M79.655,17.989,69.4,7.733l1.981-1.978a.832.832,0,0,0,1.138-1.212L68.246.275a.83.83,0,0,0-1.173,1.173l-.035-.035-5.423,5.42.035.039a.83.83,0,0,0-1.173,1.173l4.268,4.271a.832.832,0,0,0,1.177-1.177l.035.035L67.937,9.2,78.19,19.45a1.034,1.034,0,0,0,1.465-1.461Z" transform="translate(-60.231 -0.031)" fill="#c40001"/>
        </g>
      </g>
    </g>
  </g>
</svg>
