<svg xmlns="http://www.w3.org/2000/svg" width="24" height="24" viewBox="0 0 24 24">
  <g id="setting" transform="translate(-17449 -2775)">
    <rect id="Rectangle_37" data-name="Rectangle 37" width="24" height="24" transform="translate(17449 2775)" fill="#fff" opacity="0"/>
    <path id="settings_1_" data-name="settings (1)" d="M20.867,8.556H18.809a.79.79,0,0,1-.559-1.349l1.455-1.455a1.134,1.134,0,0,0,0-1.6L17.851,2.295a1.16,1.16,0,0,0-1.6,0L14.793,3.749a.765.765,0,0,1-.551.234.822.822,0,0,1-.556-.22.763.763,0,0,1-.242-.573V1.133A1.134,1.134,0,0,0,12.312,0H9.688A1.134,1.134,0,0,0,8.556,1.133V3.191a.788.788,0,0,1-.8.792.766.766,0,0,1-.55-.234L5.751,2.295a1.16,1.16,0,0,0-1.6,0L2.294,4.149a1.134,1.134,0,0,0,0,1.6L3.749,7.207a.79.79,0,0,1-.559,1.349H1.133A1.134,1.134,0,0,0,0,9.688v2.623a1.134,1.134,0,0,0,1.133,1.133H3.191a.79.79,0,0,1,.559,1.349L2.295,16.248a1.134,1.134,0,0,0,0,1.6l1.855,1.855a1.159,1.159,0,0,0,1.6,0l1.455-1.455a.765.765,0,0,1,.551-.234.788.788,0,0,1,.8.792v2.058A1.134,1.134,0,0,0,9.688,22h2.623a1.134,1.134,0,0,0,1.133-1.133V18.809a.788.788,0,0,1,.8-.792.767.767,0,0,1,.551.234l1.455,1.455a1.16,1.16,0,0,0,1.6,0l1.855-1.855a1.134,1.134,0,0,0,0-1.6L18.25,14.793a.79.79,0,0,1,.559-1.349h2.058A1.134,1.134,0,0,0,22,12.311V9.688A1.134,1.134,0,0,0,20.867,8.556ZM13.852,11A2.852,2.852,0,1,1,11,8.148,2.856,2.856,0,0,1,13.852,11Z" transform="translate(17450 2776)" fill="#c40001"/>
  </g>
</svg>
