<svg xmlns="http://www.w3.org/2000/svg" width="16.183" height="16.182" viewBox="0 0 16.183 16.182">
  <g id="calling" transform="translate(-1 -1.018)">
    <g id="Group_57519" data-name="Group 57519" transform="translate(1 1.018)">
      <g id="Group_57518" data-name="Group 57518" transform="translate(0 0)">
        <path id="Path_154598" data-name="Path 154598" d="M16.758,13.5l-3.275-2.184a.956.956,0,0,0-1.28.208l-.954,1.227a.408.408,0,0,1-.523.11l-.181-.1a10.968,10.968,0,0,1-2.859-2.245A11.013,11.013,0,0,1,5.441,7.658l-.1-.181a.408.408,0,0,1,.108-.525L6.675,6a.957.957,0,0,0,.208-1.28L4.7,1.443a.951.951,0,0,0-1.282-.289l-1.37.823A1.932,1.932,0,0,0,1.166,3.12c-.493,1.8-.122,4.9,4.447,9.468,3.634,3.634,6.34,4.611,8.2,4.611a4.778,4.778,0,0,0,1.267-.166,1.93,1.93,0,0,0,1.143-.881l.824-1.369A.951.951,0,0,0,16.758,13.5Zm-.176,1.006-.822,1.37a1.394,1.394,0,0,1-.823.638c-1.659.455-4.557.078-8.944-4.308S1.231,4.922,1.686,3.263a1.4,1.4,0,0,1,.638-.824l1.37-.822a.413.413,0,0,1,.556.125L5.437,3.524l1,1.494a.415.415,0,0,1-.09.556l-1.226.954a.944.944,0,0,0-.25,1.211l.1.177A11.44,11.44,0,0,0,7.3,10.9a11.452,11.452,0,0,0,2.982,2.337l.177.1a.944.944,0,0,0,1.211-.25l.954-1.226a.415.415,0,0,1,.556-.09l3.275,2.184A.412.412,0,0,1,16.582,14.507Z" transform="translate(-1 -1.018)" fill="#b40000"/>
        <path id="Path_154599" data-name="Path 154599" d="M282.9,69.863a4.59,4.59,0,0,1,4.584,4.584.27.27,0,0,0,.539,0,5.129,5.129,0,0,0-5.124-5.124.27.27,0,0,0,0,.539Z" transform="translate(-273.728 -67.165)" fill="#b40000"/>
        <path id="Path_154600" data-name="Path 154600" d="M282.9,121.063a2.97,2.97,0,0,1,2.966,2.966.27.27,0,1,0,.539,0,3.51,3.51,0,0,0-3.506-3.506.27.27,0,0,0,0,.539Z" transform="translate(-273.728 -116.747)" fill="#b40000"/>
        <path id="Path_154601" data-name="Path 154601" d="M282.9,172.263a1.35,1.35,0,0,1,1.348,1.348.27.27,0,1,0,.539,0,1.89,1.89,0,0,0-1.888-1.888.27.27,0,1,0,0,.539Z" transform="translate(-273.728 -166.329)" fill="#b40000"/>
      </g>
    </g>
  </g>
</svg>
