<svg xmlns="http://www.w3.org/2000/svg" width="14.154" height="14.614" viewBox="0 0 14.154 14.614">
  <g id="plus" transform="translate(-8778.118 1583.622)">
    <rect id="Rectangle_6990" data-name="Rectangle 6990" width="1.218" height="14.614" rx="0.609" transform="translate(8784.79 -1583.622)" fill="#b40000"/>
    <rect id="Rectangle_6991" data-name="Rectangle 6991" width="1.218" height="14.154" rx="0.609" transform="translate(8792.272 -1577.022) rotate(90)" fill="#b40000"/>
  </g>
</svg>
