{
    "Header": [
        {
            "name": "Home",
            "link": "/",
            "id": 1,
            "status": true
        },
        {
            "name": "About Us",
            "link": "/",
            "id": 2,
            "status": true
        },
        {
            "name": "Price",
            "link": "/",
            "id": 3,
            "status": true
        },
        {
            "name": "Gallery",
            "link": "/",
            "id": 4,
            "status": true
        },
        {
            "name": "Contact Us",
            "link": "/",
            "id": 5,
            "status": true
        },
        {
            "name": "BookNow",
            "link": "/",
            "id": 1,
            "status": true
        }
    ],
    "Logo": {
        "image": ""
    }
}